%YAML 1.1
%TAG !u! tag:unity3d.com,2011:
--- !u!74 &7400000
AnimationClip:
  m_ObjectHideFlags: 0
  m_CorrespondingSourceObject: {fileID: 0}
  m_PrefabInstance: {fileID: 0}
  m_PrefabAsset: {fileID: 0}
  m_Name: girl
  serializedVersion: 6
  m_Legacy: 0
  m_Compressed: 0
  m_UseHighQualityCurve: 1
  m_RotationCurves: []
  m_CompressedRotationCurves: []
  m_EulerCurves: []
  m_PositionCurves: []
  m_ScaleCurves: []
  m_FloatCurves: []
  m_PPtrCurves:
  - curve:
    - time: 0
      value: {fileID: 21300000, guid: bda558ffcab290b45b27880ae225713b, type: 3}
    - time: 0.033333335
      value: {fileID: 21300000, guid: cba95b1b310b9384d938f88c0051461f, type: 3}
    - time: 0.06666667
      value: {fileID: 21300000, guid: ee28bc93eddab2f4ba5789ae396a039f, type: 3}
    - time: 0.1
      value: {fileID: 21300000, guid: e4e1e9585114c154b964545c465cf13d, type: 3}
    - time: 0.13333334
      value: {fileID: 21300000, guid: ccd37c512c2e9ef4c986b4151fbfac83, type: 3}
    - time: 0.16666667
      value: {fileID: 21300000, guid: d071b43f3ea49da4dbe8abc5624aeab0, type: 3}
    - time: 0.2
      value: {fileID: 21300000, guid: 057612b74192c92428955151cfd9eedc, type: 3}
    - time: 0.23333333
      value: {fileID: 21300000, guid: d34b22c3cf38a664a89aebf46ff8c71e, type: 3}
    - time: 0.26666668
      value: {fileID: 21300000, guid: d0c42ae6589e59d46b10fcded5877dd1, type: 3}
    - time: 0.3
      value: {fileID: 21300000, guid: 9e2379a34cbd03e4ea6016a3f46fd545, type: 3}
    - time: 0.33333334
      value: {fileID: 21300000, guid: 34774da34e16c28499300768afdc9e89, type: 3}
    - time: 0.36666667
      value: {fileID: 21300000, guid: c6244e0e063ee6b499375b02c803caf6, type: 3}
    - time: 0.4
      value: {fileID: 21300000, guid: 5154d90f3a08c9448be83032fab19853, type: 3}
    - time: 0.43333334
      value: {fileID: 21300000, guid: dcb959aa6389ff64fb86bcaf43b8447e, type: 3}
    - time: 0.46666667
      value: {fileID: 21300000, guid: 42d2651d16dd7df449aeef0ade725d02, type: 3}
    - time: 0.5
      value: {fileID: 21300000, guid: 7d60d0e0e41766f4a994f45625d95c61, type: 3}
    - time: 0.53333336
      value: {fileID: 21300000, guid: ba6ec39ea141e5642bd567224d63b3df, type: 3}
    - time: 0.56666666
      value: {fileID: 21300000, guid: e790ccfe0476f9046985f06af2daa19a, type: 3}
    - time: 0.6
      value: {fileID: 21300000, guid: 072c5da21fb1a424aa638d66e3d49cca, type: 3}
    - time: 0.6333333
      value: {fileID: 21300000, guid: 2ccbb83559cc44640b93c0b3eea2f228, type: 3}
    - time: 0.6666667
      value: {fileID: 21300000, guid: 9f1d3e43d361d284fb471fb3b6dd82a0, type: 3}
    - time: 0.7
      value: {fileID: 21300000, guid: dfceb15f2fda0124a9ccfe7c39adc7c6, type: 3}
    - time: 0.73333335
      value: {fileID: 21300000, guid: 5621f73a57c62b7449842495157e9659, type: 3}
    - time: 0.76666665
      value: {fileID: 21300000, guid: 0025739f57a57a747b340cc13e5e821e, type: 3}
    - time: 0.8
      value: {fileID: 21300000, guid: 4b262afab6642734d8f053ad68da7dc0, type: 3}
    - time: 0.8333333
      value: {fileID: 21300000, guid: a7da314114a3b5f4e8e0ac38da13a396, type: 3}
    - time: 0.8666667
      value: {fileID: 21300000, guid: cd60ff327ed7c5048b87f660d7a04596, type: 3}
    - time: 0.9
      value: {fileID: 21300000, guid: b33a5badfd7f6484fa3855a67101512e, type: 3}
    - time: 0.93333334
      value: {fileID: 21300000, guid: 4ad1c86fde864c14f9bca1d70467cc63, type: 3}
    - time: 0.96666664
      value: {fileID: 21300000, guid: 94cfc565c34627a439e16bac3b357428, type: 3}
    - time: 0.98333335
      value: {fileID: 21300000, guid: 09499e143d1322e4b9be2f5ad9e1d286, type: 3}
    - time: 1.0166667
      value: {fileID: 21300000, guid: 7a7bd5be0adb0be43bd2434d37737c6b, type: 3}
    - time: 1.05
      value: {fileID: 21300000, guid: f76a0a05301dd314a842d1106a815647, type: 3}
    - time: 1.0833334
      value: {fileID: 21300000, guid: 00f6e6679523ed54c80de17f1a914aaa, type: 3}
    - time: 1.1166667
      value: {fileID: 21300000, guid: b86b453d678204c4a97e5b783d629ab3, type: 3}
    - time: 1.15
      value: {fileID: 21300000, guid: fb962bfa4e6208c479c1e9d2af9df8b1, type: 3}
    - time: 1.1833333
      value: {fileID: 21300000, guid: 8058ad4832cc1a842944303633fbb69e, type: 3}
    - time: 1.2166667
      value: {fileID: 21300000, guid: 8d0b271fa7f730f469925dbad21fae5c, type: 3}
    - time: 1.25
      value: {fileID: 21300000, guid: 06c031654f106c74b8b41207e1462030, type: 3}
    - time: 1.2833333
      value: {fileID: 21300000, guid: 4830306dcb609774dbd0f3662a4fcd12, type: 3}
    - time: 1.3166667
      value: {fileID: 21300000, guid: 354adb4c595daf849a9a13118f88c9a4, type: 3}
    - time: 1.35
      value: {fileID: 21300000, guid: 1fcbd2ea58297fa499347c2fe2ecec72, type: 3}
    - time: 1.3833333
      value: {fileID: 21300000, guid: 4e0663d483bc3b54f8c5acd4065664cb, type: 3}
    - time: 1.4166666
      value: {fileID: 21300000, guid: ec6eb1e82b77a0e4cbe08637d5ed4e71, type: 3}
    - time: 1.45
      value: {fileID: 21300000, guid: a049fa4763d6aa34490341fb4239496c, type: 3}
    - time: 1.4833333
      value: {fileID: 21300000, guid: 0ee560feb6e453d44b1033aa89d8a64d, type: 3}
    - time: 1.5166667
      value: {fileID: 21300000, guid: 531813602af06854fa6199909b13747c, type: 3}
    - time: 1.55
      value: {fileID: 21300000, guid: 72b6d6f134134594eb911f6b6adfe391, type: 3}
    - time: 1.5833334
      value: {fileID: 21300000, guid: b6ffe67588d49454b99fa8e195987326, type: 3}
    - time: 1.6166667
      value: {fileID: 21300000, guid: 7801246708bb85447982317efd6190bb, type: 3}
    - time: 1.65
      value: {fileID: 21300000, guid: 6c8f45567b46ea34cb7defeb4cb6ddee, type: 3}
    - time: 1.6833333
      value: {fileID: 21300000, guid: 1cf0bc9152c44084b8183e20ee4d414b, type: 3}
    - time: 1.7166667
      value: {fileID: 21300000, guid: 6e51242d3d0e15748af0bf35f83139e3, type: 3}
    - time: 1.75
      value: {fileID: 21300000, guid: 98b7f595dd9771149b1713cb5be06ac3, type: 3}
    - time: 1.7833333
      value: {fileID: 21300000, guid: f7fa43b1364e86f43ab61126bafcc0a9, type: 3}
    - time: 1.8166667
      value: {fileID: 21300000, guid: 0385ce859b47e0647acb9e29223b46cf, type: 3}
    - time: 1.85
      value: {fileID: 21300000, guid: 72fbbc23972c11840a76efbd4b72f411, type: 3}
    - time: 1.8833333
      value: {fileID: 21300000, guid: c29522ad6791d444aa5e8b45401f439c, type: 3}
    - time: 1.9166666
      value: {fileID: 21300000, guid: 00e65ce65e81b3b4aa66f308ea034c4b, type: 3}
    - time: 1.95
      value: {fileID: 21300000, guid: f149370c1d1829440b168fba7472f8f2, type: 3}
    attribute: m_Sprite
    path: 
    classID: 212
    script: {fileID: 0}
  m_SampleRate: 60
  m_WrapMode: 0
  m_Bounds:
    m_Center: {x: 0, y: 0, z: 0}
    m_Extent: {x: 0, y: 0, z: 0}
  m_ClipBindingConstant:
    genericBindings:
    - serializedVersion: 2
      path: 0
      attribute: 0
      script: {fileID: 0}
      typeID: 212
      customType: 23
      isPPtrCurve: 1
    pptrCurveMapping:
    - {fileID: 21300000, guid: bda558ffcab290b45b27880ae225713b, type: 3}
    - {fileID: 21300000, guid: cba95b1b310b9384d938f88c0051461f, type: 3}
    - {fileID: 21300000, guid: ee28bc93eddab2f4ba5789ae396a039f, type: 3}
    - {fileID: 21300000, guid: e4e1e9585114c154b964545c465cf13d, type: 3}
    - {fileID: 21300000, guid: ccd37c512c2e9ef4c986b4151fbfac83, type: 3}
    - {fileID: 21300000, guid: d071b43f3ea49da4dbe8abc5624aeab0, type: 3}
    - {fileID: 21300000, guid: 057612b74192c92428955151cfd9eedc, type: 3}
    - {fileID: 21300000, guid: d34b22c3cf38a664a89aebf46ff8c71e, type: 3}
    - {fileID: 21300000, guid: d0c42ae6589e59d46b10fcded5877dd1, type: 3}
    - {fileID: 21300000, guid: 9e2379a34cbd03e4ea6016a3f46fd545, type: 3}
    - {fileID: 21300000, guid: 34774da34e16c28499300768afdc9e89, type: 3}
    - {fileID: 21300000, guid: c6244e0e063ee6b499375b02c803caf6, type: 3}
    - {fileID: 21300000, guid: 5154d90f3a08c9448be83032fab19853, type: 3}
    - {fileID: 21300000, guid: dcb959aa6389ff64fb86bcaf43b8447e, type: 3}
    - {fileID: 21300000, guid: 42d2651d16dd7df449aeef0ade725d02, type: 3}
    - {fileID: 21300000, guid: 7d60d0e0e41766f4a994f45625d95c61, type: 3}
    - {fileID: 21300000, guid: ba6ec39ea141e5642bd567224d63b3df, type: 3}
    - {fileID: 21300000, guid: e790ccfe0476f9046985f06af2daa19a, type: 3}
    - {fileID: 21300000, guid: 072c5da21fb1a424aa638d66e3d49cca, type: 3}
    - {fileID: 21300000, guid: 2ccbb83559cc44640b93c0b3eea2f228, type: 3}
    - {fileID: 21300000, guid: 9f1d3e43d361d284fb471fb3b6dd82a0, type: 3}
    - {fileID: 21300000, guid: dfceb15f2fda0124a9ccfe7c39adc7c6, type: 3}
    - {fileID: 21300000, guid: 5621f73a57c62b7449842495157e9659, type: 3}
    - {fileID: 21300000, guid: 0025739f57a57a747b340cc13e5e821e, type: 3}
    - {fileID: 21300000, guid: 4b262afab6642734d8f053ad68da7dc0, type: 3}
    - {fileID: 21300000, guid: a7da314114a3b5f4e8e0ac38da13a396, type: 3}
    - {fileID: 21300000, guid: cd60ff327ed7c5048b87f660d7a04596, type: 3}
    - {fileID: 21300000, guid: b33a5badfd7f6484fa3855a67101512e, type: 3}
    - {fileID: 21300000, guid: 4ad1c86fde864c14f9bca1d70467cc63, type: 3}
    - {fileID: 21300000, guid: 94cfc565c34627a439e16bac3b357428, type: 3}
    - {fileID: 21300000, guid: 09499e143d1322e4b9be2f5ad9e1d286, type: 3}
    - {fileID: 21300000, guid: 7a7bd5be0adb0be43bd2434d37737c6b, type: 3}
    - {fileID: 21300000, guid: f76a0a05301dd314a842d1106a815647, type: 3}
    - {fileID: 21300000, guid: 00f6e6679523ed54c80de17f1a914aaa, type: 3}
    - {fileID: 21300000, guid: b86b453d678204c4a97e5b783d629ab3, type: 3}
    - {fileID: 21300000, guid: fb962bfa4e6208c479c1e9d2af9df8b1, type: 3}
    - {fileID: 21300000, guid: 8058ad4832cc1a842944303633fbb69e, type: 3}
    - {fileID: 21300000, guid: 8d0b271fa7f730f469925dbad21fae5c, type: 3}
    - {fileID: 21300000, guid: 06c031654f106c74b8b41207e1462030, type: 3}
    - {fileID: 21300000, guid: 4830306dcb609774dbd0f3662a4fcd12, type: 3}
    - {fileID: 21300000, guid: 354adb4c595daf849a9a13118f88c9a4, type: 3}
    - {fileID: 21300000, guid: 1fcbd2ea58297fa499347c2fe2ecec72, type: 3}
    - {fileID: 21300000, guid: 4e0663d483bc3b54f8c5acd4065664cb, type: 3}
    - {fileID: 21300000, guid: ec6eb1e82b77a0e4cbe08637d5ed4e71, type: 3}
    - {fileID: 21300000, guid: a049fa4763d6aa34490341fb4239496c, type: 3}
    - {fileID: 21300000, guid: 0ee560feb6e453d44b1033aa89d8a64d, type: 3}
    - {fileID: 21300000, guid: 531813602af06854fa6199909b13747c, type: 3}
    - {fileID: 21300000, guid: 72b6d6f134134594eb911f6b6adfe391, type: 3}
    - {fileID: 21300000, guid: b6ffe67588d49454b99fa8e195987326, type: 3}
    - {fileID: 21300000, guid: 7801246708bb85447982317efd6190bb, type: 3}
    - {fileID: 21300000, guid: 6c8f45567b46ea34cb7defeb4cb6ddee, type: 3}
    - {fileID: 21300000, guid: 1cf0bc9152c44084b8183e20ee4d414b, type: 3}
    - {fileID: 21300000, guid: 6e51242d3d0e15748af0bf35f83139e3, type: 3}
    - {fileID: 21300000, guid: 98b7f595dd9771149b1713cb5be06ac3, type: 3}
    - {fileID: 21300000, guid: f7fa43b1364e86f43ab61126bafcc0a9, type: 3}
    - {fileID: 21300000, guid: 0385ce859b47e0647acb9e29223b46cf, type: 3}
    - {fileID: 21300000, guid: 72fbbc23972c11840a76efbd4b72f411, type: 3}
    - {fileID: 21300000, guid: c29522ad6791d444aa5e8b45401f439c, type: 3}
    - {fileID: 21300000, guid: 00e65ce65e81b3b4aa66f308ea034c4b, type: 3}
    - {fileID: 21300000, guid: f149370c1d1829440b168fba7472f8f2, type: 3}
  m_AnimationClipSettings:
    serializedVersion: 2
    m_AdditiveReferencePoseClip: {fileID: 0}
    m_AdditiveReferencePoseTime: 0
    m_StartTime: 0
    m_StopTime: 1.9666667
    m_OrientationOffsetY: 0
    m_Level: 0
    m_CycleOffset: 0
    m_HasAdditiveReferencePose: 0
    m_LoopTime: 1
    m_LoopBlend: 0
    m_LoopBlendOrientation: 0
    m_LoopBlendPositionY: 0
    m_LoopBlendPositionXZ: 0
    m_KeepOriginalOrientation: 0
    m_KeepOriginalPositionY: 1
    m_KeepOriginalPositionXZ: 0
    m_HeightFromFeet: 0
    m_Mirror: 0
  m_EditorCurves: []
  m_EulerEditorCurves: []
  m_HasGenericRootTransform: 0
  m_HasMotionFloatCurves: 0
  m_Events: []
